…
### (1 point) Create Data

As stored, both `flights` and `weather` are stored a "plain" data frames. To begin, cast the `flights` dataset into a time series dataset, a `tsibble`.

-   Use the combination of year, month, day, hour, and minute to produce the time index. Call this newly mutated variable `time_index`. There is very good handling of dates inside of the `lubridate` package. There is a nice one-page cheetsheet that Rstudio makes available. For this task you might be looking for `lubridate::make_datetime`.
-   Although it may not generally be true, for this work, also assume that you can uniquely identify a flight by the carrier and the flight number, so you can use these two pieces of information to define the `key`. We need to define a key because in some cases there are more than one flight that leave at the same time -- this is because the granularity of our time measure is at the minute and it is possible for two planes to leave within the same minute.


```r
flights
```

```
## # A tibble: 336,776 × 19
##     year month   day dep_time sched_dep_time dep_delay arr_time sched_arr_time
##    <int> <int> <int>    <int>          <int>     <dbl>    <int>          <int>
##  1  2013     1     1      517            515         2      830            819
##  2  2013     1     1      533            529         4      850            830
##  3  2013     1     1      542            540         2      923            850
##  4  2013     1     1      544            545        -1     1004           1022
##  5  2013     1     1      554            600        -6      812            837
##  6  2013     1     1      554            558        -4      740            728
##  7  2013     1     1      555            600        -5      913            854
##  8  2013     1     1      557            600        -3      709            723
##  9  2013     1     1      557            600        -3      838            846
## 10  2013     1     1      558            600        -2      753            745
## # … with 336,766 more rows, and 11 more variables: arr_delay <dbl>,
## #   carrier <chr>, flight <int>, tailnum <chr>, origin <chr>, dest <chr>,
## #   air_time <dbl>, distance <dbl>, hour <dbl>, minute <dbl>, time_hour <dttm>
```
…
